{
	"address": "109316, г. Москва, Остаповский проезд, д. 9, стр.1",
	"phone": "+7 (495) 921-34-27",
	"hours": "Круглосуточно",
	"copyright": "© НVSM , 2016. Все права защищены.",
	"products": [{
		"title": "Все товары",
		"href": "/"
	}, {
		"title": "Кулеры",
		"href": "/"
	}, {
		"title": "Вода 19 л.",
		"href": "/"
	}, {
		"title": "Вода 0.2 – 13 л.",
		"href": "/"
	}, {
		"title": "Соки",
		"href": "/"
	}, {
		"title": "Чай, кофе, сахар",
		"href": "/"
	}, {
		"title": "Аксуссуары",
		"href": "/"
	}, {
		"title": "Винные шкафы",
		"href": "/"
	}, {
		"title": "Хозяйственные товары",
		"href": "/"
	}, {
		"title": "Ремонт куллеров",
		"href": "/"
	}, {
		"title": "Аренда куллеров",
		"href": "/"
	}, {
		"title": "Акции",
		"href": "/"
	}, {
		"title": "Товары со скидкой",
		"href": "/"
	}],
	"nav": [{
		"title": "Обратная связь",
		"href": "/"
	}, {
		"title": "Контакты",
		"href": "/"
	}, {
		"title": "Отзывы",
		"href": "/"
	}, {
		"title": "Доставка и оплата",
		"href": "/"
	}, {
		"title": "Прайс лист",
		"href": "/"
	}, {
		"title": "Личный кабинет",
		"href": "/"
	}, {
		"title": "Корзина",
		"href": "/"
	}]
}
