{
	"paging": true,
	"filters": true,
	"nav": [{
		"title": "Все товары",
		"count": "1 222"
	}, {
		"title": "Минеральная",
		"count": "322"
	}, {
		"title": "Лимонады",
		"count": "322"
	}, {
		"title": "Кислородная",
		"count": "322"
	}, {
		"title": "Ледниковая",
		"count": "322"
	}, {
		"title": "Лечебная",
		"count": "322"
	}, {
		"title": "Детям",
		"count": "322"
	}, {
		"title": "Элитная",
		"count": "322"
	}],
	"items": [{
		"image": "http://res.cloudinary.com/canvaskisa/image/upload/v1470562582/bottle_bvyirz.png",
		"stars": 4,
		"title": "Школьник",
		"values": {
			"Объем": "19 л.",
			"Количество": "4 шт.",
			"Производство": "Россия"
		},
		"description": "Питьевая вода \"Архыз\" c низкой минерализацией и содержанием природного йода. Она признана оптимальной водой для приготовления питания, в том числе детского.",
		"price": "2 300 руб."
	}, {
		"image": "http://res.cloudinary.com/canvaskisa/image/upload/v1470562582/bottle_bvyirz.png",
		"stars": 4,
		"title": "Школьник",
		"values": {
			"Объем": "19 л.",
			"Количество": "4 шт.",
			"Производство": "Россия"
		},
		"description": "Питьевая вода \"Архыз\" c низкой минерализацией и содержанием природного йода. Она признана оптимальной водой для приготовления питания, в том числе детского.",
		"price": "2 300 руб."
	}, {
		"image": "http://res.cloudinary.com/canvaskisa/image/upload/v1470562582/bottle_bvyirz.png",
		"stars": 4,
		"title": "Школьник",
		"values": {
			"Объем": "19 л.",
			"Количество": "4 шт.",
			"Производство": "Россия"
		},
		"description": "Питьевая вода \"Архыз\" c низкой минерализацией и содержанием природного йода. Она признана оптимальной водой для приготовления питания, в том числе детского.",
		"price": "2 300 руб."
	}, {
		"image": "http://res.cloudinary.com/canvaskisa/image/upload/v1470562582/bottle_bvyirz.png",
		"stars": 4,
		"title": "Школьник",
		"values": {
			"Объем": "19 л.",
			"Количество": "4 шт.",
			"Производство": "Россия"
		},
		"description": "Питьевая вода \"Архыз\" c низкой минерализацией и содержанием природного йода. Она признана оптимальной водой для приготовления питания, в том числе детского.",
		"price": "2 300 руб."
	}]
}
